<?xml version="1.0" encoding="UTF-8" standalone="no"?>
<!-- Created with Inkscape (http://www.inkscape.org/) -->

<svg
   xmlns:dc="http://purl.org/dc/elements/1.1/"
   xmlns:cc="http://creativecommons.org/ns#"
   xmlns:rdf="http://www.w3.org/1999/02/22-rdf-syntax-ns#"
   xmlns:svg="http://www.w3.org/2000/svg"
   xmlns="http://www.w3.org/2000/svg"
   xmlns:xlink="http://www.w3.org/1999/xlink"
   xmlns:sodipodi="http://sodipodi.sourceforge.net/DTD/sodipodi-0.dtd"
   xmlns:inkscape="http://www.inkscape.org/namespaces/inkscape"
   width="744.09448819"
   height="1052.3622047"
   id="svg2"
   version="1.1"
   inkscape:version="0.48.4 r9939"
   sodipodi:docname="New document 1">
  <defs
     id="defs4">
    <clipPath
       id="clipPath3856"
       clipPathUnits="userSpaceOnUse">
      <path
         id="path3858"
         d="M 0,800 800,800 800,0 0,0 0,800 z" />
    </clipPath>
  </defs>
  <sodipodi:namedview
     id="base"
     pagecolor="#ffffff"
     bordercolor="#666666"
     borderopacity="1.0"
     inkscape:pageopacity="0.0"
     inkscape:pageshadow="2"
     inkscape:zoom="1"
     inkscape:cx="272.7265"
     inkscape:cy="550.37302"
     inkscape:document-units="px"
     inkscape:current-layer="layer1"
     showgrid="false"
     inkscape:window-width="1855"
     inkscape:window-height="1056"
     inkscape:window-x="65"
     inkscape:window-y="24"
     inkscape:window-maximized="1" />
  <metadata
     id="metadata7">
    <rdf:RDF>
      <cc:Work
         rdf:about="">
        <dc:format>image/svg+xml</dc:format>
        <dc:type
           rdf:resource="http://purl.org/dc/dcmitype/StillImage" />
        <dc:title></dc:title>
      </cc:Work>
    </rdf:RDF>
  </metadata>
  <g
     inkscape:label="Layer 1"
     inkscape:groupmode="layer"
     id="layer1">
    <path
       style="fill:#4e4c4e;fill-opacity:1;stroke:#4e4c4e;stroke-width:8.33093548;stroke-linecap:round;stroke-linejoin:miter;stroke-miterlimit:4;stroke-opacity:1;stroke-dasharray:none"
       d="M 180.43334,394.866 543.98067,620.51427"
       id="path2998-0-4-6"
       inkscape:connector-curvature="0"
       sodipodi:nodetypes="cc"
       inkscape:export-filename="/home/anarubioruiz/Repositories/tfg.ana.rubio/doc/proyecto/tfg/figures/evolutionary_prototyping.png"
       inkscape:export-xdpi="300"
       inkscape:export-ydpi="300" />
    <path
       style="fill:#4e4c4e;fill-opacity:1;stroke:#4e4c4e;stroke-width:8.33093548;stroke-linecap:round;stroke-linejoin:miter;stroke-miterlimit:4;stroke-opacity:1;stroke-dasharray:none"
       d="M 555.88829,397.59164 192.34095,623.23991"
       id="path2998-0-4-6-5"
       inkscape:connector-curvature="0"
       sodipodi:nodetypes="cc"
       inkscape:export-filename="/home/anarubioruiz/Repositories/tfg.ana.rubio/doc/proyecto/tfg/figures/evolutionary_prototyping.png"
       inkscape:export-xdpi="300"
       inkscape:export-ydpi="300" />
    <path
       sodipodi:type="arc"
       style="fill:none;stroke:#4e4c4e;stroke-width:16.5;stroke-miterlimit:4;stroke-opacity:1;stroke-dasharray:none"
       id="path2985"
       sodipodi:cx="472.14285"
       sodipodi:cy="517.36218"
       sodipodi:rx="225"
       sodipodi:ry="225"
       d="m 697.14285,517.36218 a 225,225 0 1 1 -450,0 225,225 0 1 1 450,0 z"
       transform="matrix(0.52719018,0.84974733,-0.84974733,0.52719018,561.14518,-161.22211)"
       inkscape:export-filename="/home/anarubioruiz/Repositories/tfg.ana.rubio/doc/proyecto/tfg/figures/evolutionary_prototyping.png"
       inkscape:export-xdpi="300"
       inkscape:export-ydpi="300" />
    <path
       inkscape:connector-curvature="0"
       style="fill:#4e4c4e;fill-opacity:1;stroke:none"
       d="m 370.32231,291.65313 c -31.04752,1.13687 -86.26213,15.06048 -114.55229,32.61193 -22.69079,14.07755 -58.24244,51.37772 -72.35024,72.12028 l 108.41368,66.81309 31.8198,-31.676 45.04908,-13.38477 79.99268,45.21862 108.6527,-70.28216 -39.18163,-43.16773 -44.88516,-34.21494 -60.55914,-18.79307 z"
       id="path2985-7-8"
       sodipodi:nodetypes="cscccccccccc"
       inkscape:export-filename="/home/anarubioruiz/Repositories/tfg.ana.rubio/doc/proyecto/tfg/figures/evolutionary_prototyping.png"
       inkscape:export-xdpi="300"
       inkscape:export-ydpi="300" />
    <path
       style="fill:#4e4c4e;fill-opacity:1;stroke:#4e4c4e;stroke-width:8.33093548;stroke-linecap:round;stroke-linejoin:miter;stroke-miterlimit:4;stroke-opacity:1;stroke-dasharray:none"
       d="m 543.98067,404.94227 -347.1071,215.572"
       id="path2998-0"
       inkscape:connector-curvature="0"
       inkscape:export-filename="/home/anarubioruiz/Repositories/tfg.ana.rubio/doc/proyecto/tfg/figures/evolutionary_prototyping.png"
       inkscape:export-xdpi="300"
       inkscape:export-ydpi="300" />
    <path
       style="fill:#4e4c4e;fill-opacity:1;stroke:#4e4c4e;stroke-width:8.33093548;stroke-linecap:round;stroke-linejoin:miter;stroke-miterlimit:4;stroke-opacity:1;stroke-dasharray:none"
       d="m 196.87357,404.94227 347.1071,215.572"
       id="path2998-0-4"
       inkscape:connector-curvature="0"
       sodipodi:nodetypes="cc"
       inkscape:export-filename="/home/anarubioruiz/Repositories/tfg.ana.rubio/doc/proyecto/tfg/figures/evolutionary_prototyping.png"
       inkscape:export-xdpi="300"
       inkscape:export-ydpi="300" />
    <path
       style="fill:#4e4c4e;fill-opacity:1;stroke:#4e4c4e;stroke-width:8.33100033;stroke-linecap:round;stroke-linejoin:miter;stroke-miterlimit:4;stroke-opacity:1;stroke-dasharray:none"
       d="m 370.52226,308.42788 -0.19028,408.60077"
       id="path2998-0-4-9"
       inkscape:connector-curvature="0"
       inkscape:export-filename="/home/anarubioruiz/Repositories/tfg.ana.rubio/doc/proyecto/tfg/figures/evolutionary_prototyping.png"
       inkscape:export-xdpi="300"
       inkscape:export-ydpi="300" />
    <path
       sodipodi:type="arc"
       style="fill:#4e4c4e;fill-opacity:1;stroke:none"
       id="path2985-6-2"
       sodipodi:cx="472.14285"
       sodipodi:cy="517.36218"
       sodipodi:rx="225"
       sodipodi:ry="225"
       d="m 697.14285,517.36218 a 225,225 0 1 1 -450,0 225,225 0 1 1 450,0 z"
       transform="matrix(0.2274683,0.36664299,-0.36664299,0.2274683,452.7302,221.93216)"
       inkscape:export-filename="/home/anarubioruiz/Repositories/tfg.ana.rubio/doc/proyecto/tfg/figures/evolutionary_prototyping.png"
       inkscape:export-xdpi="300"
       inkscape:export-ydpi="300" />
    <path
       style="fill:#ffffff;fill-opacity:1;stroke:none"
       d="m 369.50302,423.4018 c -15.799,0.14679 -31.74944,4.49939 -46.15625,13.4375 -13.36762,8.29338 -23.79391,19.53969 -30.9375,32.375 l 156,0 c -0.66963,-1.19789 -1.36287,-2.38444 -2.09375,-3.5625 -17.06366,-27.50392 -46.65078,-42.53023 -76.8125,-42.25 z m -77.59375,131.84375 c 0.8326,1.53428 1.69288,3.06006 2.625,4.5625 26.00176,41.91073 81.05802,54.81426 122.96875,28.8125 13.70975,-8.50564 24.31434,-20.12882 31.46875,-33.375 l -157.0625,0 z"
       id="path2985-6"
       inkscape:connector-curvature="0"
       inkscape:export-filename="/home/anarubioruiz/Repositories/tfg.ana.rubio/doc/proyecto/tfg/figures/evolutionary_prototyping.png"
       inkscape:export-xdpi="300"
       inkscape:export-ydpi="300" />
    <g
       transform="matrix(1.0521754,0,0,-1.0521754,427.3466,510.38456)"
       id="g4504-7"
       style="fill:#98676c;fill-opacity:1;stroke:#98676c;stroke-opacity:1"
       inkscape:export-filename="/home/anarubioruiz/Repositories/tfg.ana.rubio/doc/proyecto/tfg/figures/evolutionary_prototyping.png"
       inkscape:export-xdpi="300"
       inkscape:export-ydpi="300">
      <path
         id="path4506-3"
         style="fill:#98676c;fill-opacity:1;fill-rule:nonzero;stroke:#98676c;stroke-width:0.5429008;stroke-opacity:1"
         d="M -0.21325487,-0.05927703 -15.825453,15.552378 c -1.10426,1.105346 -2.896918,1.105346 -4.002808,0 l -4.002807,-4.002808 c -1.105346,-1.104803 -1.105346,-2.8741155 0,-3.9789195 l 4.085328,-4.0619831 -85.25025,0 c -1.56248,0 -3.80356,-1.3149057 -3.80356,-2.87791753 l 0,-5.66082677 c 0,-1.5635544 2.24108,-3.4050736 3.80356,-3.4050736 l 85.25025,0 -4.085328,-3.7986775 c -1.105346,-1.105889 -1.105346,-2.754679 0,-3.860568 l 4.002807,-3.930059 c 1.10589,-1.106432 2.898548,-1.070058 4.002808,0.03583 l 15.61219813,15.6284865 c 0.587962,0.5885044 0.852898,1.3800538 0.815437,2.1515159 0.03746,0.7698334 -0.227475,1.56083977 -0.815437,2.14934427"
         inkscape:connector-curvature="0"
         sodipodi:nodetypes="ccccccsssscccccccc" />
    </g>
    <path
       style="fill:#ffe6d5;fill-opacity:1;stroke:#4e4c4e;stroke-width:8.33093548;stroke-linecap:round;stroke-linejoin:miter;stroke-miterlimit:4;stroke-opacity:1;stroke-dasharray:none"
       d="m 315.66178,546.71418 -31.92569,19.80298"
       id="path2998-0-4-3-7"
       inkscape:connector-curvature="0"
       sodipodi:nodetypes="cc"
       inkscape:export-filename="/home/anarubioruiz/Repositories/tfg.ana.rubio/doc/proyecto/tfg/figures/evolutionary_prototyping.png"
       inkscape:export-xdpi="300"
       inkscape:export-ydpi="300" />
    <path
       style="fill:#ffe6d5;fill-opacity:1;stroke:#4e4c4e;stroke-width:8.47899437;stroke-linecap:round;stroke-linejoin:miter;stroke-miterlimit:4;stroke-opacity:1;stroke-dasharray:none"
       d="M 327.58305,533.94818 295.08997,554.1031"
       id="path2998-0-4-3-2"
       inkscape:connector-curvature="0"
       sodipodi:nodetypes="cc"
       inkscape:export-filename="/home/anarubioruiz/Repositories/tfg.ana.rubio/doc/proyecto/tfg/figures/evolutionary_prototyping.png"
       inkscape:export-xdpi="300"
       inkscape:export-ydpi="300" />
    <path
       style="fill:#ffe6d5;fill-opacity:1;stroke:#4e4c4e;stroke-width:8.33093548;stroke-linecap:round;stroke-linejoin:miter;stroke-miterlimit:4;stroke-opacity:1;stroke-dasharray:none"
       d="m 419.82356,543.37746 31.92569,19.80298"
       id="path2998-0-4-3-3"
       inkscape:connector-curvature="0"
       sodipodi:nodetypes="cc"
       inkscape:export-filename="/home/anarubioruiz/Repositories/tfg.ana.rubio/doc/proyecto/tfg/figures/evolutionary_prototyping.png"
       inkscape:export-xdpi="300"
       inkscape:export-ydpi="300" />
    <path
       style="fill:#ffe6d5;fill-opacity:1;stroke:#4e4c4e;stroke-width:7.91146469;stroke-linecap:round;stroke-linejoin:miter;stroke-miterlimit:4;stroke-opacity:1;stroke-dasharray:none"
       d="M 419.83934,538.81508 450.32608,557.517"
       id="path2998-0-4-3-29"
       inkscape:connector-curvature="0"
       sodipodi:nodetypes="cc"
       inkscape:export-filename="/home/anarubioruiz/Repositories/tfg.ana.rubio/doc/proyecto/tfg/figures/evolutionary_prototyping.png"
       inkscape:export-xdpi="300"
       inkscape:export-ydpi="300" />
    <text
       xml:space="preserve"
       style="font-size:23.58690643px;font-style:normal;font-weight:normal;line-height:125%;letter-spacing:1.76901805px;word-spacing:0px;fill:#ffffff;fill-opacity:1;stroke:none;font-family:Sans"
       id="text5115"
       sodipodi:linespacing="125%"
       transform="matrix(0.97552467,0.21989004,-0.21989004,0.97552467,-81.529539,-176.21639)"
       inkscape:export-filename="/home/anarubioruiz/Repositories/tfg.ana.rubio/doc/proyecto/tfg/figures/evolutionary_prototyping.png"
       inkscape:export-xdpi="300"
       inkscape:export-ydpi="300"><textPath
         xlink:href="#path2985-7-8-4"
         id="textPath5208"><tspan
   style="font-style:normal;font-variant:normal;font-weight:500;font-stretch:normal;letter-spacing:-1.66877413px;fill:#ffffff;fill-opacity:1;font-family:Ubuntu;-inkscape-font-specification:Ubuntu Medium"
   id="tspan5117">ANÁLISIS</tspan></textPath></text>
    <text
       xml:space="preserve"
       style="font-size:22.01027298px;font-style:normal;font-weight:normal;line-height:125%;letter-spacing:1.65077055px;word-spacing:0px;fill:#ffffff;fill-opacity:1;stroke:none;font-family:Sans"
       id="text5115-5"
       sodipodi:linespacing="125%"
       transform="matrix(0.67456045,-0.7382196,0.7382196,0.67456045,-454.12869,562.45616)"
       inkscape:export-filename="/home/anarubioruiz/Repositories/tfg.ana.rubio/doc/proyecto/tfg/figures/evolutionary_prototyping.png"
       inkscape:export-xdpi="300"
       inkscape:export-ydpi="300"><textPath
         xlink:href="#path2985-7-8-4"
         id="textPath5205"><tspan
   style="font-style:normal;font-variant:normal;font-weight:500;font-stretch:normal;letter-spacing:-1.55722725px;fill:#ffffff;fill-opacity:1;stroke:none;font-family:Ubuntu;-inkscape-font-specification:Ubuntu Medium"
   id="tspan5117-3">PRODUCTO</tspan></textPath></text>
    <text
       xml:space="preserve"
       style="font-size:23.58690643px;font-style:normal;font-weight:normal;line-height:125%;letter-spacing:1.76901805px;word-spacing:0px;fill:#4e4c4e;fill-opacity:1;stroke:none;font-family:Sans"
       x="487.22171"
       y="491.22446"
       id="text5115-9"
       sodipodi:linespacing="125%"
       inkscape:export-filename="/home/anarubioruiz/Repositories/tfg.ana.rubio/doc/proyecto/tfg/figures/evolutionary_prototyping.png"
       inkscape:export-xdpi="300"
       inkscape:export-ydpi="300"><tspan
         sodipodi:role="line"
         id="tspan5117-8"
         x="487.22171"
         y="491.22446"
         style="font-style:normal;font-variant:normal;font-weight:500;font-stretch:normal;letter-spacing:-1.66877413px;fill:#4e4c4e;fill-opacity:1;font-family:Ubuntu;-inkscape-font-specification:Ubuntu Medium">DISEÑO</tspan></text>
    <path
       inkscape:connector-curvature="0"
       style="fill:none;fill-opacity:1;stroke:none"
       d="m 597.32042,397.06782 c 31.04752,1.13687 62.2205,10.11073 90.51066,27.66218 22.69079,14.07755 41.27188,32.28584 55.37968,53.0284 l -145.89034,91.56182 0,-172.2524 z"
       id="path2985-7-8-4" />
    <g
       id="g5272"
       transform="matrix(0.12631456,0,0,0.12631456,414.95939,366.27058)"
       style="fill:#fac96b;fill-opacity:1"
       inkscape:export-filename="/home/anarubioruiz/Repositories/tfg.ana.rubio/doc/proyecto/tfg/figures/evolutionary_prototyping.png"
       inkscape:export-xdpi="300"
       inkscape:export-ydpi="300">
      <g
         id="g5214"
         style="fill:#fac96b;fill-opacity:1">
        <g
           id="g5216"
           style="fill:#fac96b;fill-opacity:1">
          <g
             id="g5218"
             style="fill:#fac96b;fill-opacity:1">
            <path
               id="path5220"
               d="M 229.001,392.729 H 44.522 V 27.274 H 243.429 V 82.69 c 0,5.6 4.534,10.133 10.131,10.133 h 53.791 l 0.009,181.564 c 9.418,0.215 18.602,1.963 27.266,5.188 V 77.743 c 0,-2.168 -0.863,-4.248 -2.396,-5.787 L 262.667,2.395 C 261.133,0.862 259.053,0 256.881,0 H 41.796 C 28.262,0 17.25,11.008 17.25,24.543 v 370.915 c 0,13.533 11.012,24.543 24.547,24.543 H 248.77 c -8.304,-7.617 -15.056,-16.887 -19.769,-27.272 z"
               inkscape:connector-curvature="0"
               style="fill:#fac96b;fill-opacity:1" />
            <path
               id="path5222"
               d="m 404.824,311.648 c 0,-4.586 -1.785,-8.896 -5.027,-12.142 l -12.844,-12.844 c -3.244,-3.242 -7.555,-5.027 -12.139,-5.027 -4.582,0 -8.896,1.785 -12.141,5.029 l -19.602,19.6 c -10.47,-7.506 -23.304,-11.928 -37.168,-11.928 -35.273,0 -63.867,28.596 -63.867,63.869 0,35.271 28.594,63.867 63.867,63.867 35.271,0 63.867,-28.597 63.867,-63.867 0,-1.43 -0.051,-2.848 -0.145,-4.254 l 30.166,-30.166 c 3.248,-3.239 5.033,-7.553 5.033,-12.137 z m -18.967,3.819 -61.43,61.428 c -1.295,1.296 -3.051,2.021 -4.881,2.021 h -0.002 c -1.832,0 -3.588,-0.729 -4.881,-2.023 l -28.465,-28.51 c -2.691,-2.693 -2.689,-7.062 0.002,-9.758 l 5.483,-5.479 c 2.69,-2.693 7.058,-2.695 9.755,-0.007 l 18.104,18.058 51.019,-51.021 c 1.296,-1.296 3.052,-2.021 4.882,-2.021 1.83,0 3.586,0.727 4.881,2.021 l 5.531,5.53 c 2.697,2.694 2.697,7.064 0.002,9.761 z"
               inkscape:connector-curvature="0"
               style="fill:#fac96b;fill-opacity:1" />
            <path
               id="path5224"
               d="m 188.141,108.951 -57.438,13.148 13.149,-57.438 c -20.125,-5.047 -42.319,0.296 -58.059,16.035 -23.835,23.834 -23.835,62.478 0,86.312 23.835,23.835 62.478,23.835 86.313,0 15.737,-15.739 21.081,-37.933 16.035,-58.057 z"
               inkscape:connector-curvature="0"
               style="fill:#fac96b;fill-opacity:1" />
            <path
               id="path5226"
               d="M 188.689,64.113 C 180.592,56.017 170.788,50.674 160.435,48.078 l -13.149,57.437 57.438,-13.149 C 202.128,82.014 196.785,72.209 188.689,64.113 z"
               inkscape:connector-curvature="0"
               style="fill:#fac96b;fill-opacity:1" />
            <g
               id="g5228"
               style="fill:#fac96b;fill-opacity:1">
              <path
                 id="path5230"
                 d="m 89.161,249.945 h 20.993 c 5.813,0 10.542,-4.729 10.542,-10.543 0,-5.814 -4.729,-10.543 -10.542,-10.543 H 89.161 c -5.813,0 -10.543,4.729 -10.543,10.543 0,5.814 4.73,10.543 10.543,10.543 z"
                 inkscape:connector-curvature="0"
                 style="fill:#fac96b;fill-opacity:1" />
              <path
                 id="path5232"
                 d="M 170.153,267.859 H 89.161 c -5.813,0 -10.543,4.729 -10.543,10.543 0,5.813 4.729,10.543 10.543,10.543 h 80.993 c 5.813,0 10.542,-4.729 10.542,-10.543 -0.001,-5.814 -4.73,-10.543 -10.543,-10.543 z"
                 inkscape:connector-curvature="0"
                 style="fill:#fac96b;fill-opacity:1" />
              <path
                 id="path5234"
                 d="M 158.153,306.859 H 89.161 c -5.813,0 -10.543,4.729 -10.543,10.543 0,5.813 4.729,10.543 10.543,10.543 h 68.993 c 5.813,0 10.542,-4.729 10.542,-10.543 -0.001,-5.814 -4.73,-10.543 -10.543,-10.543 z"
                 inkscape:connector-curvature="0"
                 style="fill:#fac96b;fill-opacity:1" />
            </g>
          </g>
        </g>
      </g>
      <g
         id="g5236"
         style="fill:#fac96b;fill-opacity:1" />
      <g
         id="g5238"
         style="fill:#fac96b;fill-opacity:1" />
      <g
         id="g5240"
         style="fill:#fac96b;fill-opacity:1" />
      <g
         id="g5242"
         style="fill:#fac96b;fill-opacity:1" />
      <g
         id="g5244"
         style="fill:#fac96b;fill-opacity:1" />
      <g
         id="g5246"
         style="fill:#fac96b;fill-opacity:1" />
      <g
         id="g5248"
         style="fill:#fac96b;fill-opacity:1" />
      <g
         id="g5250"
         style="fill:#fac96b;fill-opacity:1" />
      <g
         id="g5252"
         style="fill:#fac96b;fill-opacity:1" />
      <g
         id="g5254"
         style="fill:#fac96b;fill-opacity:1" />
      <g
         id="g5256"
         style="fill:#fac96b;fill-opacity:1" />
      <g
         id="g5258"
         style="fill:#fac96b;fill-opacity:1" />
      <g
         id="g5260"
         style="fill:#fac96b;fill-opacity:1" />
      <g
         id="g5262"
         style="fill:#fac96b;fill-opacity:1" />
      <g
         id="g5264"
         style="fill:#fac96b;fill-opacity:1" />
    </g>
    <path
       id="path5222-0"
       d="m 336.67661,376.28479 c 0,-1.7382 -0.67657,-3.37181 -1.90537,-4.60215 l -4.86821,-4.86821 c -1.22957,-1.22882 -2.86355,-1.90537 -4.60102,-1.90537 -1.73673,0 -3.37184,0.67655 -4.60178,1.90611 l -7.4297,7.42893 c -3.96841,-2.84497 -8.83285,-4.52101 -14.08768,-4.52101 -13.36944,0 -24.20735,10.83865 -24.20735,24.20809 0,13.36867 10.83791,24.20735 24.20735,24.20735 13.36868,0 24.20735,-10.83905 24.20735,-24.20735 0,-0.542 -0.0199,-1.07948 -0.055,-1.61236 l 11.43371,-11.43375 c 1.23111,-1.22767 1.90768,-2.86282 1.90768,-4.60028 z m -7.189,1.44752 -23.28367,23.2829 c -0.49085,0.49122 -1.15641,0.76602 -1.85003,0.76602 h -7.6e-4 c -0.69436,0 -1.35995,-0.27631 -1.85003,-0.76678 l -10.789,-10.80608 c -1.01996,-1.02073 -1.01923,-2.6767 7.4e-4,-3.69855 l 2.07821,-2.07669 c 1.01959,-1.02073 2.67519,-1.02146 3.69742,-0.002 l 6.86192,6.84447 19.33758,-19.33837 c 0.49121,-0.49121 1.1568,-0.76601 1.85042,-0.76601 0.69362,0 1.35918,0.27545 1.85003,0.76601 l 2.09641,2.09604 c 1.02223,1.0211 1.02223,2.67745 7.6e-4,3.69968 z"
       inkscape:connector-curvature="0"
       style="fill:#94ab95;fill-opacity:1"
       inkscape:export-filename="/home/anarubioruiz/Repositories/tfg.ana.rubio/doc/proyecto/tfg/figures/evolutionary_prototyping.png"
       inkscape:export-xdpi="300"
       inkscape:export-ydpi="300" />
    <g
       id="g5356"
       transform="matrix(0.1285041,0,0,0.1285041,495.58376,500.43509)"
       style="fill:#4e4c4e;fill-opacity:1"
       inkscape:export-filename="/home/anarubioruiz/Repositories/tfg.ana.rubio/doc/proyecto/tfg/figures/evolutionary_prototyping.png"
       inkscape:export-xdpi="300"
       inkscape:export-ydpi="300">
      <path
         d="m 172.115,288.246 h -5.982 l 4.23,-4.23 c 10.708,-10.714 10.708,-28.145 0,-38.857 -0.034,-0.033 -0.068,-0.066 -0.102,-0.1 -10.721,-10.615 -28.078,-10.581 -38.76,0.099 l -4.229,4.229 v -5.979 c 0,-15.151 -12.327,-27.478 -27.478,-27.478 -15.152,0 -27.479,12.326 -27.479,27.478 v 5.978 l -4.228,-4.229 c -10.714,-10.71 -28.146,-10.708 -38.859,0.002 -10.711,10.713 -10.712,28.146 0,38.86 l 4.227,4.228 H 27.476 C 12.326,288.246 0,300.573 0,315.724 c 0,15.151 12.326,27.478 27.478,27.478 h 5.979 l -4.229,4.229 c -10.712,10.712 -10.712,28.144 -0.001,38.858 0.04,0.04 0.081,0.08 0.122,0.12 10.721,10.591 28.064,10.554 38.74,-0.118 l 4.227,-4.227 v 5.979 c 0,15.15 12.328,27.477 27.48,27.477 15.15,0 27.476,-12.326 27.476,-27.477 v -5.98 l 4.229,4.229 c 10.715,10.711 28.148,10.71 38.86,-0.003 10.712,-10.713 10.712,-28.145 0,-38.858 l -4.23,-4.229 h 5.983 c 15.15,0 27.476,-12.327 27.476,-27.479 0.001,-15.151 -12.324,-27.477 -27.475,-27.477 z m 0,36.956 h -16.089 c -3.89,0 -7.34,2.499 -8.552,6.196 -0.78,2.378 -1.75,4.718 -2.883,6.956 -1.758,3.472 -1.085,7.679 1.666,10.43 l 11.377,11.376 c 3.695,3.695 3.695,9.708 0,13.403 -3.696,3.695 -9.71,3.695 -13.405,0 l -11.375,-11.376 c -2.751,-2.75 -6.955,-3.423 -10.426,-1.667 -2.242,1.134 -4.583,2.104 -6.96,2.884 -3.696,1.213 -6.194,4.662 -6.194,8.552 v 16.088 c 0,5.226 -4.252,9.477 -9.478,9.477 -5.227,0 -9.479,-4.251 -9.479,-9.477 v -16.089 c 0,-3.889 -2.497,-7.337 -6.191,-8.551 -2.381,-0.782 -4.723,-1.752 -6.961,-2.885 -1.29,-0.652 -2.68,-0.969 -4.06,-0.969 -2.334,0 -4.638,0.907 -6.366,2.636 l -11.375,11.375 c -3.696,3.695 -9.71,3.697 -13.405,0.001 -0.023,-0.022 -0.045,-0.045 -0.068,-0.067 -3.628,-3.702 -3.606,-9.664 0.066,-13.336 L 53.335,348.78 c 2.751,-2.752 3.423,-6.961 1.664,-10.432 -1.125,-2.222 -2.096,-4.563 -2.883,-6.957 -1.214,-3.693 -4.662,-6.189 -8.55,-6.189 H 27.478 c -5.226,0 -9.478,-4.253 -9.478,-9.479 0,-5.226 4.251,-9.477 9.478,-9.477 h 16.088 c 3.886,0 7.333,-2.494 8.549,-6.186 0.787,-2.391 1.758,-4.733 2.887,-6.963 1.756,-3.471 1.084,-7.678 -1.666,-10.428 L 41.96,271.291 c -3.696,-3.696 -3.696,-9.711 -10e-4,-13.406 3.696,-3.692 9.708,-3.694 13.403,0 l 11.378,11.379 c 2.751,2.751 6.958,3.424 10.43,1.665 2.226,-1.127 4.567,-2.097 6.958,-2.883 3.693,-1.214 6.189,-4.662 6.189,-8.55 v -16.09 c 0,-5.226 4.253,-9.478 9.48,-9.478 5.225,0 9.476,4.252 9.476,9.478 v 16.088 c 0,3.888 2.496,7.336 6.189,8.55 2.383,0.783 4.725,1.755 6.96,2.886 3.47,1.755 7.677,1.086 10.428,-1.666 l 11.379,-11.379 c 3.697,-3.694 9.709,-3.696 13.403,-0.002 0.019,0.02 0.038,0.038 0.057,0.057 3.639,3.7 3.621,9.673 -0.055,13.349 l -11.377,11.378 c -2.751,2.752 -3.422,6.959 -1.665,10.43 1.129,2.23 2.1,4.572 2.885,6.96 1.214,3.693 4.662,6.189 8.55,6.189 h 16.089 c 5.225,0 9.476,4.252 9.476,9.479 -0.001,5.225 -4.252,9.477 -9.477,9.477 z m 204.829,-85.643 c -4.971,0 -9,-4.029 -9,-9 V 127.182 c 0,-4.123 -3.354,-7.477 -7.476,-7.477 H 343.99 c -4.971,0 -9,-4.029 -9,-9 0,-4.971 4.029,-9 9,-9 h 16.478 c 14.047,0 25.476,11.429 25.476,25.477 v 103.377 c 0,4.971 -4.029,9 -9,9 z M 99.797,285.976 c -16.404,0 -29.75,13.346 -29.75,29.75 0,16.403 13.346,29.749 29.75,29.749 16.404,0 29.749,-13.346 29.749,-29.749 0,-16.404 -13.345,-29.75 -29.749,-29.75 z m 0,41.499 c -6.479,0 -11.75,-5.271 -11.75,-11.749 0,-6.478 5.271,-11.75 11.75,-11.75 6.479,0 11.749,5.271 11.749,11.75 0,6.479 -5.271,11.749 -11.749,11.749 z M 297.979,7.686 h -57.14 c -4.971,0 -9,4.029 -9,9 v 378.693 c 0,4.971 4.029,9 9,9 h 57.14 c 4.971,0 9,-4.029 9,-9 V 16.686 c 0,-4.971 -4.029,-9 -9,-9 z m -9,378.693 h -39.14 v -45.117 h 12.125 c 4.971,0 9,-4.029 9,-9 0,-4.971 -4.029,-9 -9,-9 h -12.125 v -45.115 h 12.125 c 4.971,0 9,-4.029 9,-9 0,-4.971 -4.029,-9 -9,-9 h -12.125 v -45.114 h 12.125 c 4.971,0 9,-4.029 9,-9 0,-4.971 -4.029,-9 -9,-9 h -12.125 v -45.115 h 12.125 c 4.971,0 9,-4.029 9,-9 0,-4.971 -4.029,-9 -9,-9 H 249.839 V 88.802 h 12.125 c 4.971,0 9,-4.029 9,-9 0,-4.971 -4.029,-9 -9,-9 H 249.839 V 25.686 h 39.14 V 386.379 z M 451.971,44.218 v 323.627 c 0,4.971 -4.029,9 -9,9 h -52.144 c -4.971,0 -9,-4.029 -9,-9 0,-4.971 4.029,-9 9,-9 h 43.144 V 53.218 h -94.12 c -4.971,0 -9,-4.029 -9,-9 0,-4.971 4.029,-9 9,-9 h 103.12 c 4.97,0 9,4.03 9,9 z M 352.99,433.69 v 1.595 c 0,4.971 -4.029,9 -9,9 -4.971,0 -9,-4.029 -9,-9 v -1.595 c 0,-4.971 4.029,-9 9,-9 4.971,0 9,4.029 9,9 z m 0,-290.115 v 260.952 c 0,4.971 -4.029,9 -9,9 -4.971,0 -9,-4.029 -9,-9 V 143.575 c 0,-4.971 4.029,-9 9,-9 4.971,0 9,4.029 9,9 z M 201.84,35.218 c 0,0 -79.909,0.003 -80.092,0.013 -2.004,0.104 -3.834,0.863 -5.281,2.067 -0.001,10e-4 -0.003,0.003 -0.005,0.004 -0.004,0.004 -0.009,0.008 -0.013,0.011 -0.004,0.004 -0.008,0.007 -0.012,0.01 -0.002,0.002 -0.004,0.004 -0.006,0.005 -0.005,0.005 -0.011,0.01 -0.017,0.015 l 0,10e-4 c -0.191,0.161 -81.112,81.067 -81.112,81.067 -1.553,1.549 -2.543,3.661 -2.638,6.005 -0.006,0.145 -0.007,75.528 -0.007,75.528 0,4.971 4.029,9 9,9 4.971,0 9,-4.029 9,-9 v -66.16 h 71.565 c 4.971,0 9,-4.029 9,-9 V 53.218 h 70.618 c 4.971,0 9,-4.029 9,-9 0,-4.971 -4.029,-9 -9,-9 z m -88.617,80.566 H 63.386 l 49.837,-49.838 v 49.838 z"
         id="XMLID_257_"
         inkscape:connector-curvature="0"
         style="fill:#4e4c4e;fill-opacity:1" />
      <g
         id="g5320"
         style="fill:#4e4c4e;fill-opacity:1" />
      <g
         id="g5322"
         style="fill:#4e4c4e;fill-opacity:1" />
      <g
         id="g5324"
         style="fill:#4e4c4e;fill-opacity:1" />
      <g
         id="g5326"
         style="fill:#4e4c4e;fill-opacity:1" />
      <g
         id="g5328"
         style="fill:#4e4c4e;fill-opacity:1" />
      <g
         id="g5330"
         style="fill:#4e4c4e;fill-opacity:1" />
      <g
         id="g5332"
         style="fill:#4e4c4e;fill-opacity:1" />
      <g
         id="g5334"
         style="fill:#4e4c4e;fill-opacity:1" />
      <g
         id="g5336"
         style="fill:#4e4c4e;fill-opacity:1" />
      <g
         id="g5338"
         style="fill:#4e4c4e;fill-opacity:1" />
      <g
         id="g5340"
         style="fill:#4e4c4e;fill-opacity:1" />
      <g
         id="g5342"
         style="fill:#4e4c4e;fill-opacity:1" />
      <g
         id="g5344"
         style="fill:#4e4c4e;fill-opacity:1" />
      <g
         id="g5346"
         style="fill:#4e4c4e;fill-opacity:1" />
      <g
         id="g5348"
         style="fill:#4e4c4e;fill-opacity:1" />
    </g>
    <text
       xml:space="preserve"
       style="font-size:20.98742104px;font-style:normal;font-weight:normal;line-height:99.00000095%;letter-spacing:1.57405663px;word-spacing:0px;fill:#4e4c4e;fill-opacity:1;stroke:none;font-family:Sans"
       x="392.70782"
       y="625.67981"
       id="text5115-9-1"
       sodipodi:linespacing="99.000001%"
       inkscape:export-filename="/home/anarubioruiz/Repositories/tfg.ana.rubio/doc/proyecto/tfg/figures/evolutionary_prototyping.png"
       inkscape:export-xdpi="300"
       inkscape:export-ydpi="300"><tspan
         sodipodi:role="line"
         x="392.70782"
         y="625.67981"
         style="font-style:normal;font-variant:normal;font-weight:500;font-stretch:normal;text-align:start;line-height:99.00000095%;letter-spacing:-1.48486042px;text-anchor:start;fill:#4e4c4e;fill-opacity:1;font-family:Ubuntu;-inkscape-font-specification:Ubuntu Medium"
         id="tspan5395">CONSTRU</tspan><tspan
         sodipodi:role="line"
         x="392.70782"
         y="646.45734"
         style="font-style:normal;font-variant:normal;font-weight:500;font-stretch:normal;text-align:start;line-height:99.00000095%;letter-spacing:-1.48486042px;text-anchor:start;fill:#4e4c4e;fill-opacity:1;font-family:Ubuntu;-inkscape-font-specification:Ubuntu Medium"
         id="tspan5403">CCIÓN</tspan></text>
    <g
       id="g5471"
       transform="matrix(0.20329795,0,0,0.20329795,410.83886,621.55402)"
       style="fill:#4e4c4e;fill-opacity:1"
       inkscape:export-filename="/home/anarubioruiz/Repositories/tfg.ana.rubio/doc/proyecto/tfg/figures/evolutionary_prototyping.png"
       inkscape:export-xdpi="300"
       inkscape:export-ydpi="300">
      <g
         id="g5406"
         style="fill:#4e4c4e;fill-opacity:1">
        <g
           id="iconos_32_"
           style="fill:#4e4c4e;fill-opacity:1">
          <rect
             id="rect5409"
             height="47.812"
             width="133.875"
             y="329.90601"
             x="0"
             style="fill:#4e4c4e;fill-opacity:1" />
          <rect
             id="rect5413"
             height="47.812"
             width="133.875"
             y="262.96899"
             x="76.5"
             style="fill:#4e4c4e;fill-opacity:1" />
          <rect
             id="rect5415"
             height="47.812"
             width="133.875"
             y="196.03101"
             x="0"
             style="fill:#4e4c4e;fill-opacity:1" />
          <rect
             id="rect5417"
             height="47.812"
             width="133.875"
             y="196.03101"
             x="153"
             style="fill:#4e4c4e;fill-opacity:1" />
          <rect
             id="rect5421"
             height="47.812"
             width="133.875"
             y="262.96899"
             x="229.5"
             style="fill:#4e4c4e;fill-opacity:1" />
          <rect
             id="rect5423"
             height="47.812"
             width="133.875"
             y="129.09399"
             x="229.5"
             style="fill:#4e4c4e;fill-opacity:1" />
          <rect
             id="rect5431"
             height="47.812"
             width="133.875"
             y="196.03101"
             x="306"
             style="fill:#4e4c4e;fill-opacity:1" />
          <rect
             id="rect5433"
             height="47.812"
             width="133.875"
             y="62.155998"
             x="306"
             style="fill:#4e4c4e;fill-opacity:1" />
        </g>
      </g>
      <g
         id="g5435"
         style="fill:#4e4c4e;fill-opacity:1" />
      <g
         id="g5437"
         style="fill:#4e4c4e;fill-opacity:1" />
      <g
         id="g5439"
         style="fill:#4e4c4e;fill-opacity:1" />
      <g
         id="g5441"
         style="fill:#4e4c4e;fill-opacity:1" />
      <g
         id="g5443"
         style="fill:#4e4c4e;fill-opacity:1" />
      <g
         id="g5445"
         style="fill:#4e4c4e;fill-opacity:1" />
      <g
         id="g5447"
         style="fill:#4e4c4e;fill-opacity:1" />
      <g
         id="g5449"
         style="fill:#4e4c4e;fill-opacity:1" />
      <g
         id="g5451"
         style="fill:#4e4c4e;fill-opacity:1" />
      <g
         id="g5453"
         style="fill:#4e4c4e;fill-opacity:1" />
      <g
         id="g5455"
         style="fill:#4e4c4e;fill-opacity:1" />
      <g
         id="g5457"
         style="fill:#4e4c4e;fill-opacity:1" />
      <g
         id="g5459"
         style="fill:#4e4c4e;fill-opacity:1" />
      <g
         id="g5461"
         style="fill:#4e4c4e;fill-opacity:1" />
      <g
         id="g5463"
         style="fill:#4e4c4e;fill-opacity:1" />
    </g>
    <text
       xml:space="preserve"
       style="font-size:20.98742104px;font-style:normal;font-weight:normal;line-height:99.00000095%;letter-spacing:1.57405663px;word-spacing:0px;fill:#4e4c4e;fill-opacity:1;stroke:none;font-family:Sans"
       x="345.01666"
       y="625.5119"
       id="text5115-9-1-5"
       sodipodi:linespacing="99.000001%"
       inkscape:export-filename="/home/anarubioruiz/Repositories/tfg.ana.rubio/doc/proyecto/tfg/figures/evolutionary_prototyping.png"
       inkscape:export-xdpi="300"
       inkscape:export-ydpi="300"><tspan
         sodipodi:role="line"
         x="343.5318"
         y="625.5119"
         style="font-style:normal;font-variant:normal;font-weight:500;font-stretch:normal;text-align:end;line-height:99.00000095%;letter-spacing:-1.48486042px;text-anchor:end;fill:#4e4c4e;fill-opacity:1;font-family:Ubuntu;-inkscape-font-specification:Ubuntu Medium"
         id="tspan5403-8">EVALUA</tspan><tspan
         sodipodi:role="line"
         x="343.5318"
         y="646.28943"
         style="font-style:normal;font-variant:normal;font-weight:500;font-stretch:normal;text-align:end;line-height:99.00000095%;letter-spacing:-1.48486042px;text-anchor:end;fill:#4e4c4e;fill-opacity:1;font-family:Ubuntu;-inkscape-font-specification:Ubuntu Medium"
         id="tspan5633">CIÓN</tspan></text>
    <g
       id="g5605"
       transform="matrix(0.11951126,0.12557283,-0.12557283,0.11951126,272.80648,594.76924)"
       style="fill:#4e4c4e;fill-opacity:1"
       inkscape:export-filename="/home/anarubioruiz/Repositories/tfg.ana.rubio/doc/proyecto/tfg/figures/evolutionary_prototyping.png"
       inkscape:export-xdpi="300"
       inkscape:export-ydpi="300">
      <g
         id="g5551"
         style="fill:#4e4c4e;fill-opacity:1"
         transform="matrix(0.76333071,-0.78980171,0.78980171,0.76333071,5.3008217,199.02058)">
        <g
           id="g5553"
           style="fill:#4e4c4e;fill-opacity:1">
          <g
             id="g5555"
             style="fill:#4e4c4e;fill-opacity:1">
            <path
               id="path5559"
               d="m 452.08208,213.40354 c -0.96244,-0.23653 -1.92408,-0.14948 -2.7555,0.21854 -0.56596,0.25051 -1.07098,0.63047 -1.47783,1.12717 l -33.60467,41.16495 c -1.00318,1.22916 -1.24478,2.98633 -0.63059,4.61368 0.61177,1.62574 1.98439,2.87113 3.60068,3.26712 l 11.04614,2.70819 c -10.57271,27.88471 -78.57913,67.12353 -105.25522,78.93151 -60.00081,26.5589 -152.04376,23.64352 -183.57762,-41.58065 -3.91133,-8.09015 -13.11471,-11.97769 -20.55704,-8.68341 -7.44232,3.29429 -10.30461,12.52262 -6.39327,20.61274 39.34304,81.3766 149.83048,92.08417 224.6917,58.94745 35.3096,-15.62955 109.49147,-62.88603 121.85326,-100.68434 l 12.31421,3.02006 c 1.6162,0.39646 3.23218,-0.11743 4.23469,-1.3463 1.00317,-1.22915 1.24371,-2.98854 0.63194,-4.61428 l -20.51582,-54.43812 c -0.61681,-1.62263 -1.98875,-2.86832 -3.60506,-3.26429 z"
               inkscape:connector-curvature="0"
               style="fill:#4e4c4e;fill-opacity:1"
               sodipodi:nodetypes="cscccccssssscccccc" />
            <path
               id="path5561"
               d="m 134.02664,242.67099 -0.42355,-131.21832 c -0.0492,-15.233811 -7.25635,-27.626596 -16.09073,-27.675757 -8.83938,-0.04919 -15.96181,12.263856 -15.91264,27.497667 l 0.42355,131.21832 c 0.0492,15.23381 7.25135,27.62656 16.09073,27.67575 8.83438,0.0492 15.96181,-12.26386 15.91264,-27.49766 z"
               inkscape:connector-curvature="0"
               style="fill:#4e4c4e;fill-opacity:1" />
            <path
               id="path5563"
               d="M 190.08433,250.69789 189.86246,89.71223 c -0.0153,-10.767135 -7.18897,-19.508889 -16.02309,-19.523733 -8.83911,-0.01541 -15.98917,8.701622 -15.97433,19.469994 l 0.22186,160.984429 c 0.0153,10.76715 7.18898,19.51012 16.02809,19.52497 8.83411,0.0167 15.98417,-8.70286 15.96933,-19.47 z"
               inkscape:connector-curvature="0"
               style="fill:#4e4c4e;fill-opacity:1" />
            <path
               id="path5565"
               d="m 246.09427,251.86051 1.33441,-91.4046 c 0.14773,-10.11942 -7.17993,-18.33315 -16.02001,-18.34302 -8.83407,-0.01 -15.83051,8.18672 -15.97827,18.30728 l -1.33441,91.4046 c -0.14771,10.11827 7.17993,18.33429 16.01401,18.34416 8.84008,0.01 15.83655,-8.19015 15.98427,-18.30842 z"
               inkscape:connector-curvature="0"
               style="fill:#4e4c4e;fill-opacity:1"
               sodipodi:nodetypes="sssssss" />
            <path
               id="path5563-7"
               d="m 298.93649,264.96847 0.47519,-70.28473 c 0.0318,-4.70082 -7.10425,-8.48637 -15.93801,-8.4546 -8.83876,0.0318 -16.02632,3.86833 -16.05811,8.56969 l -0.47518,70.2842 c -0.0318,4.70083 7.10425,8.48691 15.943,8.45512 8.83376,-0.0318 16.02133,-3.86885 16.05311,-8.56968 z"
               inkscape:connector-curvature="0"
               style="fill:#4e4c4e;fill-opacity:1" />
            <path
               id="path5563-0"
               d="m 349.18245,268.26807 0.61642,-51.90795 c 0.0413,-3.47174 -7.08708,-6.25312 -15.92077,-6.2119 -8.83868,0.0413 -16.03385,2.88906 -16.07508,6.3612 l -0.61643,51.90755 c -0.0413,3.47174 7.08709,6.25351 15.92577,6.21227 8.83368,-0.0412 16.02886,-2.88943 16.07009,-6.36117 z"
               inkscape:connector-curvature="0"
               style="fill:#4e4c4e;fill-opacity:1" />
            <path
               id="path5563-3"
               d="M 83.169731,250.19166 82.877307,80.032111 C 82.857749,68.65139 75.67977,59.408343 66.84562,59.388789 58.006469,59.369225 50.860202,68.579278 50.879763,79.961287 l 0.292421,170.158263 c 0.01956,11.38072 7.19754,20.62506 16.03669,20.64462 8.83415,0.0196 15.980415,-9.19179 15.960857,-20.57251 z"
               inkscape:connector-curvature="0"
               style="fill:#4e4c4e;fill-opacity:1" />
            <path
               id="path5563-8"
               d="m 34.468381,255.71045 0.037,-127.356 c 0,-8.5179 -7.1575,-15.422 -15.9915,-15.4196 -8.8389996,0 -16.0029996,6.9096 -16.0053996,15.4284 l -0.037,127.3551 c 0,8.5179 7.1575,15.423 15.9964996,15.4206 8.834,0 15.998,-6.9105 16.0004,-15.4285 z"
               inkscape:connector-curvature="0"
               style="fill:#4e4c4e;fill-opacity:1" />
          </g>
        </g>
      </g>
      <g
         id="g5569"
         style="fill:#4e4c4e;fill-opacity:1" />
      <g
         id="g5571"
         style="fill:#4e4c4e;fill-opacity:1" />
      <g
         id="g5573"
         style="fill:#4e4c4e;fill-opacity:1" />
      <g
         id="g5575"
         style="fill:#4e4c4e;fill-opacity:1" />
      <g
         id="g5577"
         style="fill:#4e4c4e;fill-opacity:1" />
      <g
         id="g5579"
         style="fill:#4e4c4e;fill-opacity:1" />
      <g
         id="g5581"
         style="fill:#4e4c4e;fill-opacity:1" />
      <g
         id="g5583"
         style="fill:#4e4c4e;fill-opacity:1" />
      <g
         id="g5585"
         style="fill:#4e4c4e;fill-opacity:1" />
      <g
         id="g5587"
         style="fill:#4e4c4e;fill-opacity:1" />
      <g
         id="g5589"
         style="fill:#4e4c4e;fill-opacity:1" />
      <g
         id="g5591"
         style="fill:#4e4c4e;fill-opacity:1" />
      <g
         id="g5593"
         style="fill:#4e4c4e;fill-opacity:1" />
      <g
         id="g5595"
         style="fill:#4e4c4e;fill-opacity:1" />
      <g
         id="g5597"
         style="fill:#4e4c4e;fill-opacity:1" />
    </g>
    <text
       xml:space="preserve"
       style="font-size:21.64495087px;font-style:normal;font-weight:normal;line-height:125%;letter-spacing:1.62337136px;word-spacing:0px;fill:#4e4c4e;fill-opacity:1;stroke:none;font-family:Sans"
       x="173.13374"
       y="489.5361"
       id="text5115-9-5"
       sodipodi:linespacing="125%"
       inkscape:export-filename="/home/anarubioruiz/Repositories/tfg.ana.rubio/doc/proyecto/tfg/figures/evolutionary_prototyping.png"
       inkscape:export-xdpi="300"
       inkscape:export-ydpi="300"><tspan
         sodipodi:role="line"
         id="tspan5117-8-6"
         x="173.13374"
         y="489.5361"
         style="font-style:normal;font-variant:normal;font-weight:500;font-stretch:normal;letter-spacing:-1.53138077px;fill:#4e4c4e;fill-opacity:1;font-family:Ubuntu;-inkscape-font-specification:Ubuntu Medium">REFINADO</tspan></text>
    <g
       id="g5804"
       transform="matrix(0.84664435,0,0,0.84664435,185.13258,492.38839)"
       style="fill:#4e4c4e;fill-opacity:1"
       inkscape:export-filename="/home/anarubioruiz/Repositories/tfg.ana.rubio/doc/proyecto/tfg/figures/evolutionary_prototyping.png"
       inkscape:export-xdpi="300"
       inkscape:export-ydpi="300">
      <g
         id="g5761"
         style="fill:#4e4c4e;fill-opacity:1">
        <g
           id="Gauge"
           style="fill:#4e4c4e;fill-opacity:1">
          <g
             id="g5764"
             style="fill:#4e4c4e;fill-opacity:1">
            <path
               id="path5766"
               d="M 52.173,57.876 C 52.145,57.547 52.051,57.218 51.887,56.905 L 31.254,17.971 c -0.609,-1.144 -1.983,-1.684 -3.229,-1.267 -1.248,0.423 -1.993,1.674 -1.756,2.95 l 8.041,43.173 c 0.063,0.343 0.196,0.65 0.377,0.93 0.078,0.369 0.173,0.736 0.3,1.104 1.295,3.694 4.838,6.184 8.813,6.184 1.027,0 2.048,-0.166 3.024,-0.497 2.354,-0.792 4.253,-2.438 5.347,-4.636 1.095,-2.198 1.251,-4.68 0.444,-6.994 -0.123,-0.363 -0.275,-0.708 -0.442,-1.042 z m -8.37,-38.343 c -1.471,0 -2.662,1.17 -2.662,2.613 0,1.443 1.191,2.614 2.662,2.614 21.218,0 38.476,16.961 38.476,37.806 0,1.442 1.195,2.613 2.664,2.613 1.473,0 2.664,-1.171 2.664,-2.613 C 87.605,38.834 67.956,19.533 43.803,19.533 z M 16.276,29.087 C 5.933,37.306 0,49.507 0,62.565 c 0,1.443 1.191,2.615 2.663,2.615 1.474,0 2.665,-1.172 2.665,-2.615 0,-11.47 5.211,-22.189 14.298,-29.409 1.146,-0.908 1.32,-2.556 0.397,-3.679 -0.923,-1.122 -2.6,-1.298 -3.747,-0.39 z"
               inkscape:connector-curvature="0"
               style="fill:#4e4c4e;fill-opacity:1" />
          </g>
        </g>
      </g>
      <g
         id="g5768"
         style="fill:#4e4c4e;fill-opacity:1" />
      <g
         id="g5770"
         style="fill:#4e4c4e;fill-opacity:1" />
      <g
         id="g5772"
         style="fill:#4e4c4e;fill-opacity:1" />
      <g
         id="g5774"
         style="fill:#4e4c4e;fill-opacity:1" />
      <g
         id="g5776"
         style="fill:#4e4c4e;fill-opacity:1" />
      <g
         id="g5778"
         style="fill:#4e4c4e;fill-opacity:1" />
      <g
         id="g5780"
         style="fill:#4e4c4e;fill-opacity:1" />
      <g
         id="g5782"
         style="fill:#4e4c4e;fill-opacity:1" />
      <g
         id="g5784"
         style="fill:#4e4c4e;fill-opacity:1" />
      <g
         id="g5786"
         style="fill:#4e4c4e;fill-opacity:1" />
      <g
         id="g5788"
         style="fill:#4e4c4e;fill-opacity:1" />
      <g
         id="g5790"
         style="fill:#4e4c4e;fill-opacity:1" />
      <g
         id="g5792"
         style="fill:#4e4c4e;fill-opacity:1" />
      <g
         id="g5794"
         style="fill:#4e4c4e;fill-opacity:1" />
      <g
         id="g5796"
         style="fill:#4e4c4e;fill-opacity:1" />
    </g>
    <path
       style="fill:#ffffff;stroke:#ffffff;stroke-width:8.44734001;stroke-linecap:round;stroke-linejoin:miter;stroke-miterlimit:4;stroke-opacity:1;stroke-dasharray:none"
       d="m 371.93817,425.74842 0,-120.68095"
       id="path5861"
       inkscape:connector-curvature="0"
       inkscape:export-filename="/home/anarubioruiz/Repositories/tfg.ana.rubio/doc/proyecto/tfg/figures/evolutionary_prototyping.png"
       inkscape:export-xdpi="300"
       inkscape:export-ydpi="300" />
  </g>
</svg>
